hw5.utf8
…
data2

## # A tibble: 611 x 9
##    Name      Alignment Intelligence Strength Speed Durability Power Combat Total
##    <chr>     <chr>            <dbl>    <dbl> <dbl>      <dbl> <dbl>  <dbl> <dbl>
##  1 3-D Man   good                50       31    43         32    25     52   233
##  2 A-Bomb    good                38      100    17         80    17     64   316
##  3 Abe Sapi good                88       14    35         42    35     85   299
##  4 Abin Sur  good                50       90    53         64    84     65   406
##  5 Abominat bad                 63       80    53         90    55     95   436
##  6 Abraxas   bad                 88      100    83         99   100     56   526
##  7 Adam Mon good                63       10    12        100    71     64   320
##  8 Adam Str good                 1        1     1          1     0      1     5
##  9 Agent  13 good                 1        1     1          1     0      1     5
## 10 Agent Bob good                10        8    13          5     5     20    61
## #  with 601 more rows
…
data3 = data2[,2:9]
data3

## # A tibble: 611 x 8
##    Alignment Intelligence Strength Speed Durability Power Combat Total
##    <fct>            <dbl>    <dbl> <dbl>      <dbl> <dbl>  <dbl> <dbl>
##  1 good                50       31    43         32    25     52   233
##  2 good                38      100    17         80    17     64   316
##  3 good                88       14    35         42    35     85   299
##  4 good                50       90    53         64    84     65   406
##  5 bad                 63       80    53         90    55     95   436
##  6 bad                 88      100    83         99   100     56   526
##  7 good                63       10    12        100    71     64   320
##  8 good                 1        1     1          1     0      1     5
##  9 good                 1        1     1          1     0      1     5
## 10 good                10        8    13          5     5     20    61
## #  with 601 more rows
…
